…
birthweight_df
```

    ## # A tibble: 4,342 × 20
    ##    babysex bhead blength   bwt delwt fincome frace gaweeks malform menarche
    ##    <fct>   <dbl>   <dbl> <dbl> <dbl>   <dbl> <fct>   <dbl> <fct>      <dbl>
    ##  1 2          34      51  3629   177      35 1        39.9 0             13
    ##  2 1          34      48  3062   156      65 2        25.9 0             14
    ##  3 2          36      50  3345   148      85 1        39.9 0             12
    ##  4 1          34      52  3062   157      55 1        40   0             14
    ##  5 2          34      52  3374   156       5 1        41.6 0             13
    ##  6 1          33      52  3374   129      55 1        40.7 0             12
    ##  7 2          33      46  2523   126      96 2        40.3 0             14
    ##  8 2          33      49  2778   140       5 1        37.4 0             12
    ##  9 1          36      52  3515   146      85 1        40.3 0             11
    ## 10 1          33      50  3459   169      75 2        40.7 0             12
    ## # … with 4,332 more rows, and 10 more variables: mheight <dbl>, momage <dbl>,
    ## #   mrace <fct>, parity <int>, pnumlbw <dbl>, pnumsga <dbl>, ppbmi <dbl>,
    ## #   ppwt <dbl>, smoken <dbl>, wtgain <dbl>
…
boot_df
```

    ## # A tibble: 5,000 × 3
    ##    strap_number r_squared log_beta
    ##    <chr>            <dbl>    <dbl>
    ##  1 0001             0.921     2.01
    ##  2 0002             0.916     1.97
    ##  3 0003             0.906     2.05
    ##  4 0004             0.923     2.00
    ##  5 0005             0.927     2.00
    ##  6 0006             0.907     2.00
    ##  7 0007             0.915     2.00
    ##  8 0008             0.932     2.03
    ##  9 0009             0.908     2.02
    ## 10 0010             0.911     1.99
    ## # … with 4,990 more rows
…
